%YAML 1.1
%TAG !u! tag:unity3d.com,2011:
--- !u!1001 &100100000
Prefab:
  m_ObjectHideFlags: 1
  serializedVersion: 2
  m_Modification:
    m_TransformParent: {fileID: 0}
    m_Modifications: []
    m_RemovedComponents: []
  m_SourcePrefab: {fileID: 0}
  m_RootGameObject: {fileID: 1492749602543668}
  m_IsPrefabAsset: 1
--- !u!1 &1377108820212664
GameObject:
  m_ObjectHideFlags: 0
  m_CorrespondingSourceObject: {fileID: 0}
  m_PrefabInternal: {fileID: 100100000}
  serializedVersion: 6
  m_Component:
  - component: {fileID: 4985856087040598}
  - component: {fileID: 8195094280265871132}
  - component: {fileID: 3664157344841153514}
  m_Layer: 31
  m_Name: Layer1
  m_TagString: Untagged
  m_Icon: {fileID: 0}
  m_NavMeshLayer: 0
  m_StaticEditorFlags: 0
  m_IsActive: 1
--- !u!1 &1492749602543668
GameObject:
  m_ObjectHideFlags: 0
  m_CorrespondingSourceObject: {fileID: 0}
  m_PrefabInternal: {fileID: 100100000}
  serializedVersion: 6
  m_Component:
  - component: {fileID: 4485327746304030}
  - component: {fileID: 2569400267821362666}
  m_Layer: 31
  m_Name: NHS Palette
  m_TagString: Untagged
  m_Icon: {fileID: 0}
  m_NavMeshLayer: 0
  m_StaticEditorFlags: 0
  m_IsActive: 1
--- !u!4 &4485327746304030
Transform:
  m_ObjectHideFlags: 1
  m_CorrespondingSourceObject: {fileID: 0}
  m_PrefabInternal: {fileID: 100100000}
  m_GameObject: {fileID: 1492749602543668}
  m_LocalRotation: {x: 0, y: 0, z: 0, w: 1}
  m_LocalPosition: {x: 0, y: 0, z: 0}
  m_LocalScale: {x: 1, y: 1, z: 1}
  m_Children:
  - {fileID: 4985856087040598}
  m_Father: {fileID: 0}
  m_RootOrder: 0
  m_LocalEulerAnglesHint: {x: 0, y: 0, z: 0}
--- !u!4 &4985856087040598
Transform:
  m_ObjectHideFlags: 1
  m_CorrespondingSourceObject: {fileID: 0}
  m_PrefabInternal: {fileID: 100100000}
  m_GameObject: {fileID: 1377108820212664}
  m_LocalRotation: {x: -0, y: -0, z: -0, w: 1}
  m_LocalPosition: {x: 0, y: 0, z: 0}
  m_LocalScale: {x: 1, y: 1, z: 1}
  m_Children: []
  m_Father: {fileID: 4485327746304030}
  m_RootOrder: 0
  m_LocalEulerAnglesHint: {x: 0, y: 0, z: 0}
--- !u!114 &114041758536986664
MonoBehaviour:
  m_ObjectHideFlags: 0
  m_CorrespondingSourceObject: {fileID: 0}
  m_PrefabInternal: {fileID: 0}
  m_GameObject: {fileID: 0}
  m_Enabled: 1
  m_EditorHideFlags: 1
  m_Script: {fileID: 12395, guid: 0000000000000000e000000000000000, type: 0}
  m_Name: Palette Settings
  m_EditorClassIdentifier: 
  cellSizing: 0
--- !u!156049354 &2569400267821362666
Grid:
  m_ObjectHideFlags: 1
  m_CorrespondingSourceObject: {fileID: 0}
  m_PrefabInternal: {fileID: 100100000}
  m_GameObject: {fileID: 1492749602543668}
  m_Enabled: 1
  m_CellSize: {x: 1, y: 1, z: 0}
  m_CellGap: {x: 0, y: 0, z: 0}
  m_CellLayout: 0
  m_CellSwizzle: 0
--- !u!483693784 &3664157344841153514
TilemapRenderer:
  m_ObjectHideFlags: 1
  m_CorrespondingSourceObject: {fileID: 0}
  m_PrefabInternal: {fileID: 100100000}
  m_GameObject: {fileID: 1377108820212664}
  m_Enabled: 0
  m_CastShadows: 0
  m_ReceiveShadows: 0
  m_DynamicOccludee: 0
  m_MotionVectors: 1
  m_LightProbeUsage: 0
  m_ReflectionProbeUsage: 0
  m_RenderingLayerMask: 4294967295
  m_Materials:
  - {fileID: 10754, guid: 0000000000000000f000000000000000, type: 0}
  m_StaticBatchInfo:
    firstSubMesh: 0
    subMeshCount: 0
  m_StaticBatchRoot: {fileID: 0}
  m_ProbeAnchor: {fileID: 0}
  m_LightProbeVolumeOverride: {fileID: 0}
  m_ScaleInLightmap: 1
  m_PreserveUVs: 0
  m_IgnoreNormalsForChartDetection: 0
  m_ImportantGI: 0
  m_StitchLightmapSeams: 0
  m_SelectedEditorRenderState: 0
  m_MinimumChartSize: 4
  m_AutoUVMaxDistance: 0.5
  m_AutoUVMaxAngle: 89
  m_LightmapParameters: {fileID: 0}
  m_SortingLayerID: 0
  m_SortingLayer: 0
  m_SortingOrder: 0
  m_ChunkSize: {x: 32, y: 32, z: 32}
  m_ChunkCullingBounds: {x: 0, y: 0, z: 0}
  m_MaxChunkCount: 16
  m_MaxFrameAge: 16
  m_SortOrder: 0
  m_DetectChunkCullingBounds: 0
  m_MaskInteraction: 0
--- !u!1839735485 &8195094280265871132
Tilemap:
  m_ObjectHideFlags: 1
  m_CorrespondingSourceObject: {fileID: 0}
  m_PrefabInternal: {fileID: 100100000}
  m_GameObject: {fileID: 1377108820212664}
  m_Enabled: 1
  m_Tiles:
  - first: {x: 0, y: -5, z: 0}
    second:
      m_TileIndex: 24
      m_TileSpriteIndex: 24
      m_TileMatrixIndex: 0
      m_TileColorIndex: 0
      m_ObjectToInstantiate: {fileID: 0}
      m_TileFlags: 1
      m_ColliderType: 1
  - first: {x: 1, y: -5, z: 0}
    second:
      m_TileIndex: 25
      m_TileSpriteIndex: 25
      m_TileMatrixIndex: 0
      m_TileColorIndex: 0
      m_ObjectToInstantiate: {fileID: 0}
      m_TileFlags: 1
      m_ColliderType: 1
  - first: {x: 2, y: -5, z: 0}
    second:
      m_TileIndex: 26
      m_TileSpriteIndex: 26
      m_TileMatrixIndex: 0
      m_TileColorIndex: 0
      m_ObjectToInstantiate: {fileID: 0}
      m_TileFlags: 1
      m_ColliderType: 1
  - first: {x: 0, y: -4, z: 0}
    second:
      m_TileIndex: 18
      m_TileSpriteIndex: 18
      m_TileMatrixIndex: 0
      m_TileColorIndex: 0
      m_ObjectToInstantiate: {fileID: 0}
      m_TileFlags: 1
      m_ColliderType: 1
  - first: {x: 1, y: -4, z: 0}
    second:
      m_TileIndex: 19
      m_TileSpriteIndex: 19
      m_TileMatrixIndex: 0
      m_TileColorIndex: 0
      m_ObjectToInstantiate: {fileID: 0}
      m_TileFlags: 1
      m_ColliderType: 1
  - first: {x: 2, y: -4, z: 0}
    second:
      m_TileIndex: 20
      m_TileSpriteIndex: 20
      m_TileMatrixIndex: 0
      m_TileColorIndex: 0
      m_ObjectToInstantiate: {fileID: 0}
      m_TileFlags: 1
      m_ColliderType: 1
  - first: {x: 3, y: -4, z: 0}
    second:
      m_TileIndex: 21
      m_TileSpriteIndex: 21
      m_TileMatrixIndex: 0
      m_TileColorIndex: 0
      m_ObjectToInstantiate: {fileID: 0}
      m_TileFlags: 1
      m_ColliderType: 1
  - first: {x: 4, y: -4, z: 0}
    second:
      m_TileIndex: 22
      m_TileSpriteIndex: 22
      m_TileMatrixIndex: 0
      m_TileColorIndex: 0
      m_ObjectToInstantiate: {fileID: 0}
      m_TileFlags: 1
      m_ColliderType: 1
  - first: {x: 5, y: -4, z: 0}
    second:
      m_TileIndex: 23
      m_TileSpriteIndex: 23
      m_TileMatrixIndex: 0
      m_TileColorIndex: 0
      m_ObjectToInstantiate: {fileID: 0}
      m_TileFlags: 1
      m_ColliderType: 1
  - first: {x: 0, y: -3, z: 0}
    second:
      m_TileIndex: 12
      m_TileSpriteIndex: 12
      m_TileMatrixIndex: 0
      m_TileColorIndex: 0
      m_ObjectToInstantiate: {fileID: 0}
      m_TileFlags: 1
      m_ColliderType: 1
  - first: {x: 1, y: -3, z: 0}
    second:
      m_TileIndex: 13
      m_TileSpriteIndex: 13
      m_TileMatrixIndex: 0
      m_TileColorIndex: 0
      m_ObjectToInstantiate: {fileID: 0}
      m_TileFlags: 1
      m_ColliderType: 1
  - first: {x: 2, y: -3, z: 0}
    second:
      m_TileIndex: 14
      m_TileSpriteIndex: 14
      m_TileMatrixIndex: 0
      m_TileColorIndex: 0
      m_ObjectToInstantiate: {fileID: 0}
      m_TileFlags: 1
      m_ColliderType: 1
  - first: {x: 3, y: -3, z: 0}
    second:
      m_TileIndex: 15
      m_TileSpriteIndex: 15
      m_TileMatrixIndex: 0
      m_TileColorIndex: 0
      m_ObjectToInstantiate: {fileID: 0}
      m_TileFlags: 1
      m_ColliderType: 1
  - first: {x: 4, y: -3, z: 0}
    second:
      m_TileIndex: 16
      m_TileSpriteIndex: 16
      m_TileMatrixIndex: 0
      m_TileColorIndex: 0
      m_ObjectToInstantiate: {fileID: 0}
      m_TileFlags: 1
      m_ColliderType: 1
  - first: {x: 5, y: -3, z: 0}
    second:
      m_TileIndex: 17
      m_TileSpriteIndex: 17
      m_TileMatrixIndex: 0
      m_TileColorIndex: 0
      m_ObjectToInstantiate: {fileID: 0}
      m_TileFlags: 1
      m_ColliderType: 1
  - first: {x: 0, y: -2, z: 0}
    second:
      m_TileIndex: 6
      m_TileSpriteIndex: 6
      m_TileMatrixIndex: 0
      m_TileColorIndex: 0
      m_ObjectToInstantiate: {fileID: 0}
      m_TileFlags: 1
      m_ColliderType: 1
  - first: {x: 1, y: -2, z: 0}
    second:
      m_TileIndex: 7
      m_TileSpriteIndex: 7
      m_TileMatrixIndex: 0
      m_TileColorIndex: 0
      m_ObjectToInstantiate: {fileID: 0}
      m_TileFlags: 1
      m_ColliderType: 1
  - first: {x: 2, y: -2, z: 0}
    second:
      m_TileIndex: 8
      m_TileSpriteIndex: 8
      m_TileMatrixIndex: 0
      m_TileColorIndex: 0
      m_ObjectToInstantiate: {fileID: 0}
      m_TileFlags: 1
      m_ColliderType: 1
  - first: {x: 3, y: -2, z: 0}
    second:
      m_TileIndex: 9
      m_TileSpriteIndex: 9
      m_TileMatrixIndex: 0
      m_TileColorIndex: 0
      m_ObjectToInstantiate: {fileID: 0}
      m_TileFlags: 1
      m_ColliderType: 1
  - first: {x: 4, y: -2, z: 0}
    second:
      m_TileIndex: 10
      m_TileSpriteIndex: 10
      m_TileMatrixIndex: 0
      m_TileColorIndex: 0
      m_ObjectToInstantiate: {fileID: 0}
      m_TileFlags: 1
      m_ColliderType: 1
  - first: {x: 5, y: -2, z: 0}
    second:
      m_TileIndex: 11
      m_TileSpriteIndex: 11
      m_TileMatrixIndex: 0
      m_TileColorIndex: 0
      m_ObjectToInstantiate: {fileID: 0}
      m_TileFlags: 1
      m_ColliderType: 1
  - first: {x: 0, y: -1, z: 0}
    second:
      m_TileIndex: 0
      m_TileSpriteIndex: 0
      m_TileMatrixIndex: 0
      m_TileColorIndex: 0
      m_ObjectToInstantiate: {fileID: 0}
      m_TileFlags: 1
      m_ColliderType: 1
  - first: {x: 1, y: -1, z: 0}
    second:
      m_TileIndex: 1
      m_TileSpriteIndex: 1
      m_TileMatrixIndex: 0
      m_TileColorIndex: 0
      m_ObjectToInstantiate: {fileID: 0}
      m_TileFlags: 1
      m_ColliderType: 1
  - first: {x: 2, y: -1, z: 0}
    second:
      m_TileIndex: 2
      m_TileSpriteIndex: 2
      m_TileMatrixIndex: 0
      m_TileColorIndex: 0
      m_ObjectToInstantiate: {fileID: 0}
      m_TileFlags: 1
      m_ColliderType: 1
  - first: {x: 3, y: -1, z: 0}
    second:
      m_TileIndex: 3
      m_TileSpriteIndex: 3
      m_TileMatrixIndex: 0
      m_TileColorIndex: 0
      m_ObjectToInstantiate: {fileID: 0}
      m_TileFlags: 1
      m_ColliderType: 1
  - first: {x: 4, y: -1, z: 0}
    second:
      m_TileIndex: 4
      m_TileSpriteIndex: 4
      m_TileMatrixIndex: 0
      m_TileColorIndex: 0
      m_ObjectToInstantiate: {fileID: 0}
      m_TileFlags: 1
      m_ColliderType: 1
  - first: {x: 5, y: -1, z: 0}
    second:
      m_TileIndex: 5
      m_TileSpriteIndex: 5
      m_TileMatrixIndex: 0
      m_TileColorIndex: 0
      m_ObjectToInstantiate: {fileID: 0}
      m_TileFlags: 1
      m_ColliderType: 1
  m_AnimatedTiles: {}
  m_TileAssetArray:
  - m_RefCount: 1
    m_Data: {fileID: 11400000, guid: b04ca9fb268a448a4b9582a3ca03df03, type: 2}
  - m_RefCount: 1
    m_Data: {fileID: 11400000, guid: c5f54aaca828449e9825631e0ee60dfa, type: 2}
  - m_RefCount: 1
    m_Data: {fileID: 11400000, guid: 34ba0b0ceca9b4071adcf307c653f874, type: 2}
  - m_RefCount: 1
    m_Data: {fileID: 11400000, guid: 877ad4d663eb841c19d7882e618b8b5d, type: 2}
  - m_RefCount: 1
    m_Data: {fileID: 11400000, guid: 6b0a502e70b754817a96f1413c01d246, type: 2}
  - m_RefCount: 1
    m_Data: {fileID: 11400000, guid: 537f7440bc1644a77bca8e403c6c55c1, type: 2}
  - m_RefCount: 1
    m_Data: {fileID: 11400000, guid: 567f6c252157b4d5da098916655d5f5b, type: 2}
  - m_RefCount: 1
    m_Data: {fileID: 11400000, guid: 3dfdcb689020740d9abeba1ce140bca4, type: 2}
  - m_RefCount: 1
    m_Data: {fileID: 11400000, guid: 4a7860fa7b4c64ce29bfda46bb4d694c, type: 2}
  - m_RefCount: 1
    m_Data: {fileID: 11400000, guid: 20cb6a099d1f04cf6844055353bb5c8e, type: 2}
  - m_RefCount: 1
    m_Data: {fileID: 11400000, guid: 8dad13347ff204ecbb649c753ea3948b, type: 2}
  - m_RefCount: 1
    m_Data: {fileID: 11400000, guid: 71d742f0ac2d546be83894accb250dd9, type: 2}
  - m_RefCount: 1
    m_Data: {fileID: 11400000, guid: 0875c9feb86b24dcf81b3372e83ae90c, type: 2}
  - m_RefCount: 1
    m_Data: {fileID: 11400000, guid: a91c516b361f64ac993f13caadcf55f3, type: 2}
  - m_RefCount: 1
    m_Data: {fileID: 11400000, guid: a2874a615a5374e50a7d3dd3d6d3e814, type: 2}
  - m_RefCount: 1
    m_Data: {fileID: 11400000, guid: 072e889e7fac543cc9f27a18c75c5f0d, type: 2}
  - m_RefCount: 1
    m_Data: {fileID: 11400000, guid: dad65b4d8ab074a6f901f0a313e1e81f, type: 2}
  - m_RefCount: 1
    m_Data: {fileID: 11400000, guid: e288a85e8766946adb4e06adce6f6c50, type: 2}
  - m_RefCount: 1
    m_Data: {fileID: 11400000, guid: a5f45595b32144b3f995e244b4a6ac96, type: 2}
  - m_RefCount: 1
    m_Data: {fileID: 11400000, guid: cb29950806d9f4232a4e2764adc72e64, type: 2}
  - m_RefCount: 1
    m_Data: {fileID: 11400000, guid: a4cf6df0ce45d495d85c6d089e1c66f1, type: 2}
  - m_RefCount: 1
    m_Data: {fileID: 11400000, guid: 5ff1a0aea685e4f94be6e532efad2998, type: 2}
  - m_RefCount: 1
    m_Data: {fileID: 11400000, guid: e2e46ebc60cf3468a8c6a133330d2f3e, type: 2}
  - m_RefCount: 1
    m_Data: {fileID: 11400000, guid: 9c18a38ecb28947aa87253d22a6e21e7, type: 2}
  - m_RefCount: 1
    m_Data: {fileID: 11400000, guid: ba595f099e4c343cf94ab69045805065, type: 2}
  - m_RefCount: 1
    m_Data: {fileID: 11400000, guid: d3b96fab8eaf348c0b1ce9096bb8a271, type: 2}
  - m_RefCount: 1
    m_Data: {fileID: 11400000, guid: a0d75f771f7ba4f4284cad7a291f3a27, type: 2}
  m_TileSpriteArray:
  - m_RefCount: 1
    m_Data: {fileID: 21300000, guid: 88658f26b7bce4f2ea451ab298c4cb9d, type: 3}
  - m_RefCount: 1
    m_Data: {fileID: 21300000, guid: 81470e28d3a4c4cb69138e1b136e9550, type: 3}
  - m_RefCount: 1
    m_Data: {fileID: 21300000, guid: eae67934eb3ae452884382c45890e2d8, type: 3}
  - m_RefCount: 1
    m_Data: {fileID: 21300000, guid: 4712bb7a1d78644fa94c397d13c10999, type: 3}
  - m_RefCount: 1
    m_Data: {fileID: 21300000, guid: ef865fef0d2e4491eb1feb88950d2b31, type: 3}
  - m_RefCount: 1
    m_Data: {fileID: 21300000, guid: ef569e79b82ef4386b49887835b06fbb, type: 3}
  - m_RefCount: 1
    m_Data: {fileID: 21300000, guid: 2e43794805dde46b2a09888102fffdc8, type: 3}
  - m_RefCount: 1
    m_Data: {fileID: 21300000, guid: 2233537735f024b55aca06e6fb8f4cb7, type: 3}
  - m_RefCount: 1
    m_Data: {fileID: 21300000, guid: ceff0e7c8126e4f7bb9467d65234c5a8, type: 3}
  - m_RefCount: 1
    m_Data: {fileID: 21300000, guid: e9e25597fe40e45bbb5fc3ae1f5b3dc8, type: 3}
  - m_RefCount: 1
    m_Data: {fileID: 21300000, guid: d027cc3e0a6144265872449b18992764, type: 3}
  - m_RefCount: 1
    m_Data: {fileID: 21300000, guid: dd3b894284d3b487ab12cd772865b38a, type: 3}
  - m_RefCount: 1
    m_Data: {fileID: 21300000, guid: e9b4d0e6921aa4f20ae34aff9d0a2e84, type: 3}
  - m_RefCount: 1
    m_Data: {fileID: 21300000, guid: efeb9cacde3014f22bdcee62055b080a, type: 3}
  - m_RefCount: 1
    m_Data: {fileID: 21300000, guid: c0354306482644ed59676be505fe4cd0, type: 3}
  - m_RefCount: 1
    m_Data: {fileID: 21300000, guid: 45d0d583a21774a8f94c8f3012fef87c, type: 3}
  - m_RefCount: 1
    m_Data: {fileID: 21300000, guid: 07a07152c9c8f4579958e4bbf1269c78, type: 3}
  - m_RefCount: 1
    m_Data: {fileID: 21300000, guid: 2ec46c2be315348c8839e6c5ab67d622, type: 3}
  - m_RefCount: 1
    m_Data: {fileID: 21300000, guid: 0e599ace63c504e85aff89b124fc49ff, type: 3}
  - m_RefCount: 1
    m_Data: {fileID: 21300000, guid: b02772447a00a483b8a84f2ad0542519, type: 3}
  - m_RefCount: 1
    m_Data: {fileID: 21300000, guid: ea3f48aae57554bd7bae81f8a49517c6, type: 3}
  - m_RefCount: 1
    m_Data: {fileID: 21300000, guid: c239ac98fde994f4590ded8aa3dde5fa, type: 3}
  - m_RefCount: 1
    m_Data: {fileID: 21300000, guid: a07cabe321ace496491c8372b922fdfd, type: 3}
  - m_RefCount: 1
    m_Data: {fileID: 21300000, guid: 4d2d452c778254a9e851885410f83cea, type: 3}
  - m_RefCount: 1
    m_Data: {fileID: 21300000, guid: 4e6ccd9db27c349048a4b9ba3919a8d2, type: 3}
  - m_RefCount: 1
    m_Data: {fileID: 21300000, guid: 51b0ef9820d8349f586571a8e736bde3, type: 3}
  - m_RefCount: 1
    m_Data: {fileID: 21300000, guid: 91652d375748e4d2991879e260e372d2, type: 3}
  m_TileMatrixArray:
  - m_RefCount: 27
    m_Data:
      e00: 1
      e01: 0
      e02: 0
      e03: 0
      e10: 0
      e11: 1
      e12: 0
      e13: 0
      e20: 0
      e21: 0
      e22: 1
      e23: 0
      e30: 0
      e31: 0
      e32: 0
      e33: 1
  m_TileColorArray:
  - m_RefCount: 27
    m_Data: {r: 1, g: 1, b: 1, a: 1}
  m_AnimationFrameRate: 1
  m_Color: {r: 1, g: 1, b: 1, a: 1}
  m_Origin: {x: 0, y: -5, z: 0}
  m_Size: {x: 6, y: 5, z: 1}
  m_TileAnchor: {x: 0.5, y: 0.5, z: 0}
  m_TileOrientation: 0
  m_TileOrientationMatrix:
    e00: 1
    e01: 0
    e02: 0
    e03: 0
    e10: 0
    e11: 1
    e12: 0
    e13: 0
    e20: 0
    e21: 0
    e22: 1
    e23: 0
    e30: 0
    e31: 0
    e32: 0
    e33: 1
